[{
    "address": "4 CHAUSSEE DE LA MUETTE",
    "category": "1",
    "city": "PARIS",
    "id": 14648,
    "lat": 48.8581888,
    "lng": 2.2741256,
    "phone": "01 42 88 18 30",
    "title": "PHARMACIE PONSARD",
    "zipcode": "75016",
    "distance": 0.22806846731701172
}, {
    "address": "1 RUE DUBAN",
    "category": "1",
    "city": "PARIS",
    "id": 14601,
    "lat": 48.8564369,
    "lng": 2.2777418,
    "phone": "01 42 88 63 36",
    "title": "PHARMACIE LB CHOPIN",
    "zipcode": "75016",
    "distance": 0.28444960210272935
}, {
    "address": "141 RUE DE LA TOUR",
    "category": "2",
    "city": "PARIS",
    "id": 14675,
    "lat": 48.8636683,
    "lng": 2.2725789,
    "phone": "01 45 04 32 33",
    "title": "PHARMACIE SEGUIN",
    "zipcode": "75016",
    "distance": 0.6170071453304972
}, {
    "address": "48BIS AVENUE MOZART",
    "category": "1",
    "city": "PARIS",
    "id": 14396,
    "lat": 48.8553166,
    "lng": 2.2697994,
    "phone": "01 42 88 13 81",
    "title": "PHARMACIE BAILLY",
    "zipcode": "75016",
    "distance": 0.6650699289340667
}, {
    "address": "4 RUE JEAN DE LA FONTAINE",
    "category": "2",
    "city": "PARIS",
    "id": 14595,
    "lat": 48.852839,
    "lng": 2.2753905,
    "phone": "01 42 88 79 51",
    "title": "PHARMACIE LA FONTAINE",
    "zipcode": "75016",
    "distance": 0.6899368203221775
}, {
    "address": "156 AVENUE VICTOR HUGO",
    "category": "2",
    "city": "PARIS",
    "id": 14690,
    "lat": 48.8666727,
    "lng": 2.2775706,
    "phone": "01 47 27 68 14",
    "title": "PHARMACIE VICTOR HUGO",
    "zipcode": "75016",
    "distance": 0.8595493135416294
}, {
    "address": "9 PLACE DE MEXICO",
    "category": "2",
    "city": "PARIS",
    "id": 14647,
    "lat": 48.8656157,
    "lng": 2.2833141,
    "phone": "01 47 27 92 28",
    "title": "PHARMACIE PLACE DE MEXICO",
    "zipcode": "75016",
    "distance": 0.8724421152398053
}, {
    "address": "1 PLACE VICTOR HUGO",
    "category": "2",
    "city": "PARIS",
    "id": 14418,
    "lat": 48.8677072,
    "lng": 2.2792421,
    "phone": "01 45 00 71 96",
    "title": "PHARMACIE BRAITMAN",
    "zipcode": "75016",
    "distance": 0.9871032125687954
}, {
    "address": "38 RUE DU DOCTEUR BLANCHE",
    "category": "1",
    "city": "PARIS",
    "id": 14545,
    "lat": 48.8541088,
    "lng": 2.2652331,
    "phone": "01 46 47 82 90",
    "title": "PHARMACIE DU DOCTEUR BLANCHE",
    "zipcode": "75016",
    "distance": 1.016569721695098
}, {
    "address": "63 RUE DE LA FAISANDERIE",
    "category": "2",
    "city": "PARIS",
    "id": 14693,
    "lat": 48.8682075,
    "lng": 2.2757306,
    "phone": "01 47 27 36 76",
    "title": "PHARMACIE ZANA",
    "zipcode": "75016",
    "distance": 1.0335732125029282
}, {
    "address": "6 BOULEVARD DE GRENELLE",
    "category": "2",
    "city": "PARIS",
    "id": 14458,
    "lat": 48.8537049,
    "lng": 2.2890224,
    "phone": "01 45 77 33 30",
    "title": "PHARMACIE DE BIR HAKEIM",
    "zipcode": "75015",
    "distance": 1.0541247555296982
}, {
    "address": "111 AVENUE VICTOR HUGO",
    "category": "2",
    "city": "PARIS",
    "id": 14382,
    "lat": 48.8684277,
    "lng": 2.2829504,
    "phone": "01 45 53 82 20",
    "title": "PHARMACIE 111",
    "zipcode": "75016",
    "distance": 1.1395324687534527
}, {
    "address": "9/11 RUE ROBERT DE FLERS",
    "category": "1",
    "city": "PARIS",
    "id": 14379,
    "lat": 48.850013,
    "lng": 2.2847075,
    "phone": "01 56 77 12 51",
    "title": "PHARM' A 6",
    "zipcode": "75015",
    "distance": 1.1418810249027462
}, {
    "address": "72 AVENUE KLEBER",
    "category": "2",
    "city": "PARIS",
    "id": 14706,
    "lat": 48.8676402,
    "lng": 2.2901533,
    "phone": "01 47 27 97 51",
    "title": "PHARMACIE DUBLY",
    "zipcode": "75016",
    "distance": 1.3624786712598305
}, {
    "address": "42 RUE DU THEATRE",
    "category": "2",
    "city": "PARIS",
    "id": 18191,
    "lat": 48.848872,
    "lng": 2.2881773,
    "phone": "01 45 77 15 65",
    "title": "PHARMACIE DU THEATRE",
    "zipcode": "75015",
    "distance": 1.386408979062608
}, {
    "address": "7 ROND POINT DU PONT MIRABEAU",
    "category": "1",
    "city": "PARIS",
    "id": 14431,
    "lat": 48.8456715,
    "lng": 2.2773343,
    "phone": "01 45 77 85 23",
    "title": "PHARMACIE CENTRALE MIRABEAU",
    "zipcode": "75015",
    "distance": 1.4766874507908017
}, {
    "address": "43-45 AVENUE KLEBER",
    "category": "1",
    "city": "PARIS",
    "id": 14812,
    "lat": 48.8683454,
    "lng": 2.2914488,
    "phone": "01 47 27 83 68",
    "title": "PHARMACIE BOISSIERE",
    "zipcode": "75016",
    "distance": 1.4849390744756907
}, {
    "address": "9 PLACE CHARLES MICHELS",
    "category": "1",
    "city": "PARIS",
    "id": 14755,
    "lat": 48.8468905,
    "lng": 2.2862845,
    "phone": "01 45 78 01 51",
    "title": "PHARMACIE GOFFIN LEROUX",
    "zipcode": "75015",
    "distance": 1.502532370507842
}, {
    "address": "19 RUE DE LOURMEL",
    "category": "1",
    "city": "PARIS",
    "id": 14801,
    "lat": 48.8492266,
    "lng": 2.2914519,
    "phone": "01 45 78 86 18",
    "title": "PHARMACIE PITOUN ZANA",
    "zipcode": "75015",
    "distance": 1.5112273460335397
}, {
    "address": "43 RUE D'AUTEUIL",
    "category": "1",
    "city": "PARIS",
    "id": 14808,
    "lat": 48.8476557,
    "lng": 2.2652293,
    "phone": "01 42 88 07 96",
    "title": "PHARMACIE DE LA CROIX BLEUE",
    "zipcode": "75016",
    "distance": 1.5236137241530332
}]